# Name,   Type, SubType, Offset,  Size
nvs,      data, nvs,     0x9000,   0x5000
cfg,      0x40, 0,       0xe000,   0x1000
phy_init, data, phy,     0xf000,   0x1000
factory,  app,  factory, 0x10000,  0xf0000
